{
  "name": "landcareresearch-ckan",
  "version": "2.1.0",
  "author": "landcareresearch",
  "summary": "Puppet module for deploying CKAN",
  "license": "GPL-3.0+",
  "source": "git://bitbucket.org/landcareresearch/puppet-ckan.git",
  "project_page": "https://bitbucket.org/landcareresearch/puppet-ckan",
  "issues_url": "https://bitbucket.org/landcareresearch/puppet-ckan/issues",
  "operatingsystem_support": [
    {
      "operatingsystem": "Ubuntu",
      "operatingsystemrelease": [
        "12.04",
        "14.04"
      ]
    }
  ],
  "dependencies": [
    {
      "name": "puppetlabs/concat",
      "version_requirement": ">= 1.1.0"
    },
    {
      "name":"puppetlabs/stdlib", 
      "version_requirement":">= 4.5.0"
    },
    {
      "name": "puppetlabs/nodejs",
      "version_requirement": ">= 0.4.0"
    },
    {
      "name": "puppetlabs/postgresql",
      "version_requirement": ">= 4.5.0"
    },
    {
      "name":"puppetlabs/apt", 
      "version_requirement":">= 2.1.1"
    },
    {
      "name": "puppetlabs/vcsrepo",
      "version_requirement": ">= 1.1.0"
    },
    {
      "name": "maestrodev/wget",
      "version_requirement": ">= 1.3.0"
    },
    {
      "name": "landcareresearch/check_run",
      "version_requirement": ">= 0.3.0"
    },
    {
      "name": "landcareresearch/solr",
      "version_requirement": ">= 0.3.4"
    },
    {
      "name": "landcareresearch/postgis",
      "version_requirement": ">= 0.1.3"
    }
  ]
}
